<?xml version="1.0" encoding="UTF-8" standalone="no"?>
<!DOCTYPE svg PUBLIC "-//W3C//DTD SVG 1.1//EN"
 "http://www.w3.org/Graphics/SVG/1.1/DTD/svg11.dtd">
<!-- Generated by graphviz version 2.40.1 (20161225.0304)
 -->
<!-- Title: dependencies Pages: 1 -->
<svg width="1124pt" height="284pt"
 viewBox="0.00 0.00 1124.00 284.00" xmlns="http://www.w3.org/2000/svg" xmlns:xlink="http://www.w3.org/1999/xlink">
<g id="graph0" class="graph" transform="scale(1 1) rotate(0) translate(4 280)">
<title>dependencies</title>
<polygon fill="#ffffff" stroke="transparent" points="-4,4 -4,-280 1120,-280 1120,4 -4,4"/>
<text text-anchor="start" x="537.0091" y="-42.4" font-family="sans-serif" font-weight="bold" font-size="14.00" fill="#000000">Legend</text>
<polygon fill="#ffffb3" stroke="transparent" points="324,-10 324,-30 344,-30 344,-10 324,-10"/>
<text text-anchor="start" x="347.629" y="-15.4" font-family="sans-serif" font-size="14.00" fill="#000000"> &#160;Declarations</text>
<polygon fill="#8dd3c7" stroke="transparent" points="437,-10 437,-30 457,-30 457,-10 437,-10"/>
<text text-anchor="start" x="460.7251" y="-15.4" font-family="sans-serif" font-size="14.00" fill="#000000"> &#160;Module</text>
<polygon fill="#80b1d3" stroke="transparent" points="523,-10 523,-30 543,-30 543,-10 523,-10"/>
<text text-anchor="start" x="546.7812" y="-15.4" font-family="sans-serif" font-size="14.00" fill="#000000"> &#160;Bootstrap</text>
<polygon fill="#fdb462" stroke="transparent" points="620,-10 620,-30 640,-30 640,-10 620,-10"/>
<text text-anchor="start" x="643.6732" y="-15.4" font-family="sans-serif" font-size="14.00" fill="#000000"> &#160;Providers</text>
<polygon fill="#fb8072" stroke="transparent" points="716,-10 716,-30 736,-30 736,-10 716,-10"/>
<text text-anchor="start" x="739.7258" y="-15.4" font-family="sans-serif" font-size="14.00" fill="#000000"> &#160;Exports</text>
<g id="clust1" class="cluster">
<title>cluster_AppModule</title>
<polygon fill="none" stroke="#000000" stroke-dasharray="1,5" points="8,-70 8,-268 1108,-268 1108,-70 8,-70"/>
</g>
<g id="clust2" class="cluster">
<title>cluster_AppModule_declarations</title>
<polygon fill="none" stroke="#000000" points="168,-78 168,-130 1100,-130 1100,-78 168,-78"/>
</g>
<g id="clust10" class="cluster">
<title>cluster_AppModule_imports</title>
<polygon fill="none" stroke="#000000" points="16,-78 16,-130 160,-130 160,-78 16,-78"/>
</g>
<g id="clust12" class="cluster">
<title>cluster_AppModule_bootstrap</title>
<polygon fill="none" stroke="#000000" points="505,-208 505,-260 629,-260 629,-208 505,-208"/>
</g>
<!-- AppComponent -->
<g id="node1" class="node">
<title>AppComponent</title>
<polygon fill="#ffffb3" stroke="#000000" points="1091.9399,-122 986.0601,-122 986.0601,-86 1091.9399,-86 1091.9399,-122"/>
<text text-anchor="middle" x="1039" y="-99.8" font-family="Times,serif" font-size="14.00" fill="#000000">AppComponent</text>
</g>
<!-- AppModule -->
<g id="node8" class="node">
<title>AppModule</title>
<polygon fill="#8dd3c7" stroke="#000000" points="608.6571,-187 605.6571,-191 584.6571,-191 581.6571,-187 525.3429,-187 525.3429,-151 608.6571,-151 608.6571,-187"/>
<text text-anchor="middle" x="567" y="-164.8" font-family="Times,serif" font-size="14.00" fill="#000000">AppModule</text>
</g>
<!-- AppComponent&#45;&gt;AppModule -->
<g id="edge1" class="edge">
<title>AppComponent&#45;&gt;AppModule</title>
<path fill="none" stroke="#000000" d="M1039,-122.2921C1039,-144.2057 1039,-178 1039,-178 1039,-178 618.8869,-178 618.8869,-178"/>
<polygon fill="#000000" stroke="#000000" points="618.8869,-174.5001 608.8869,-178 618.8868,-181.5001 618.8869,-174.5001"/>
</g>
<!-- CreateComponent -->
<g id="node2" class="node">
<title>CreateComponent</title>
<polygon fill="#ffffb3" stroke="#000000" points="967.8641,-122 850.1359,-122 850.1359,-86 967.8641,-86 967.8641,-122"/>
<text text-anchor="middle" x="909" y="-99.8" font-family="Times,serif" font-size="14.00" fill="#000000">CreateComponent</text>
</g>
<!-- CreateComponent&#45;&gt;AppModule -->
<g id="edge2" class="edge">
<title>CreateComponent&#45;&gt;AppModule</title>
<path fill="none" stroke="#000000" d="M909,-122.1061C909,-141.3391 909,-169 909,-169 909,-169 618.9359,-169 618.9359,-169"/>
<polygon fill="#000000" stroke="#000000" points="618.9359,-165.5001 608.9359,-169 618.9359,-172.5001 618.9359,-165.5001"/>
</g>
<!-- ListComponent -->
<g id="node3" class="node">
<title>ListComponent</title>
<polygon fill="#ffffb3" stroke="#000000" points="832.6109,-122 729.3891,-122 729.3891,-86 832.6109,-86 832.6109,-122"/>
<text text-anchor="middle" x="781" y="-99.8" font-family="Times,serif" font-size="14.00" fill="#000000">ListComponent</text>
</g>
<!-- ListComponent&#45;&gt;AppModule -->
<g id="edge3" class="edge">
<title>ListComponent&#45;&gt;AppModule</title>
<path fill="none" stroke="#000000" d="M781,-122.027C781,-138.3976 781,-160 781,-160 781,-160 618.7694,-160 618.7694,-160"/>
<polygon fill="#000000" stroke="#000000" points="618.7694,-156.5001 608.7694,-160 618.7693,-163.5001 618.7694,-156.5001"/>
</g>
<!-- MCollapsibleDirective -->
<g id="node4" class="node">
<title>MCollapsibleDirective</title>
<polygon fill="#ffffb3" stroke="#000000" points="711.3005,-122 566.6995,-122 566.6995,-86 711.3005,-86 711.3005,-122"/>
<text text-anchor="middle" x="639" y="-99.8" font-family="Times,serif" font-size="14.00" fill="#000000">MCollapsibleDirective</text>
</g>
<!-- MCollapsibleDirective&#45;&gt;AppModule -->
<g id="edge4" class="edge">
<title>MCollapsibleDirective&#45;&gt;AppModule</title>
<path fill="none" stroke="#000000" d="M587.8391,-122.1061C587.8391,-122.1061 587.8391,-140.991 587.8391,-140.991"/>
<polygon fill="#000000" stroke="#000000" points="584.3391,-140.9909 587.8391,-150.991 591.3391,-140.991 584.3391,-140.9909"/>
</g>
<!-- MyForDirective -->
<g id="node5" class="node">
<title>MyForDirective</title>
<polygon fill="#ffffb3" stroke="#000000" points="548.4706,-122 441.5294,-122 441.5294,-86 548.4706,-86 548.4706,-122"/>
<text text-anchor="middle" x="495" y="-99.8" font-family="Times,serif" font-size="14.00" fill="#000000">MyForDirective</text>
</g>
<!-- MyForDirective&#45;&gt;AppModule -->
<g id="edge5" class="edge">
<title>MyForDirective&#45;&gt;AppModule</title>
<path fill="none" stroke="#000000" d="M536.8285,-122.1061C536.8285,-122.1061 536.8285,-140.991 536.8285,-140.991"/>
<polygon fill="#000000" stroke="#000000" points="533.3286,-140.9909 536.8285,-150.991 540.3286,-140.991 533.3286,-140.9909"/>
</g>
<!-- NameDirective -->
<g id="node6" class="node">
<title>NameDirective</title>
<polygon fill="#ffffb3" stroke="#000000" points="423.5104,-122 322.4896,-122 322.4896,-86 423.5104,-86 423.5104,-122"/>
<text text-anchor="middle" x="373" y="-99.8" font-family="Times,serif" font-size="14.00" fill="#000000">NameDirective</text>
</g>
<!-- NameDirective&#45;&gt;AppModule -->
<g id="edge6" class="edge">
<title>NameDirective&#45;&gt;AppModule</title>
<path fill="none" stroke="#000000" d="M373,-122.027C373,-138.3976 373,-160 373,-160 373,-160 514.9049,-160 514.9049,-160"/>
<polygon fill="#000000" stroke="#000000" points="514.9049,-163.5001 524.9049,-160 514.9049,-156.5001 514.9049,-163.5001"/>
</g>
<!-- RegisterComponent -->
<g id="node7" class="node">
<title>RegisterComponent</title>
<polygon fill="#ffffb3" stroke="#000000" points="303.9846,-122 176.0154,-122 176.0154,-86 303.9846,-86 303.9846,-122"/>
<text text-anchor="middle" x="240" y="-99.8" font-family="Times,serif" font-size="14.00" fill="#000000">RegisterComponent</text>
</g>
<!-- RegisterComponent&#45;&gt;AppModule -->
<g id="edge7" class="edge">
<title>RegisterComponent&#45;&gt;AppModule</title>
<path fill="none" stroke="#000000" d="M240,-122.1061C240,-141.3391 240,-169 240,-169 240,-169 515.2531,-169 515.2531,-169"/>
<polygon fill="#000000" stroke="#000000" points="515.2531,-172.5001 525.2531,-169 515.253,-165.5001 515.2531,-172.5001"/>
</g>
<!-- AppComponent  -->
<g id="node10" class="node">
<title>AppComponent </title>
<polygon fill="#80b1d3" stroke="#000000" points="621.439,-252 512.561,-252 512.561,-216 621.439,-216 621.439,-252"/>
<text text-anchor="middle" x="567" y="-229.8" font-family="Times,serif" font-size="14.00" fill="#000000">AppComponent </text>
</g>
<!-- AppModule&#45;&gt;AppComponent  -->
<g id="edge9" class="edge">
<title>AppModule&#45;&gt;AppComponent </title>
<path fill="none" stroke="#000000" stroke-dasharray="1,5" d="M567,-187.1061C567,-187.1061 567,-205.991 567,-205.991"/>
<polygon fill="#000000" stroke="#000000" points="563.5001,-205.9909 567,-215.991 570.5001,-205.991 563.5001,-205.9909"/>
</g>
<!-- AppRoutingModule -->
<g id="node9" class="node">
<title>AppRoutingModule</title>
<polygon fill="#8dd3c7" stroke="#000000" points="152.2744,-122 149.2744,-126 128.2744,-126 125.2744,-122 23.7256,-122 23.7256,-86 152.2744,-86 152.2744,-122"/>
<text text-anchor="middle" x="88" y="-99.8" font-family="Times,serif" font-size="14.00" fill="#000000">AppRoutingModule</text>
</g>
<!-- AppRoutingModule&#45;&gt;AppModule -->
<g id="edge8" class="edge">
<title>AppRoutingModule&#45;&gt;AppModule</title>
<path fill="none" stroke="#000000" d="M88,-122.2921C88,-144.2057 88,-178 88,-178 88,-178 515.3298,-178 515.3298,-178"/>
<polygon fill="#000000" stroke="#000000" points="515.3299,-181.5001 525.3298,-178 515.3298,-174.5001 515.3299,-181.5001"/>
</g>
</g>
</svg>
